
PROGRAM ::= STATEMENT PROGRAM | ''

STATEMENT ::= LET | IF | WHILE | FOR | RETURN | EXPR

LET ::= 'LET' IDENT '=' EXPR | 'LET' OPIDENT '=' EXPR

IF ::= 'IF' EXPR 'THEN' BLOCK | 'IF' EXPR 'THEN' BLOCK 'ELSE' BLOCK

WHILE ::= 'WHILE' EXPR 'DO' BLOCK

FOR ::= 'FOR' IDENT 'FROM' EXPR 'TO' EXPR 'DO' BLOCK

BLOCK ::= 'END' | STATEMENT BLOCK

RETURN ::= 'RETURN' EXPR

EXPR ::= PAREN | OPCALL | LITERAL | VAR | FUNCALL

PAREN ::= '(' EXPR ')'

FUNCALL ::= IDENT '(' FUNARGS ')'

OPCALL ::= EXPR OPIDENT EXPR

IDENT ::= /\w[^.,=(){}";\s\n]+/

OPIDENT ::= /[+\-*/%<>=!@$^&?.:|~]+/ 

FUNARGS ::= EXPR | EXPR ',' FUNARGS | ''

LITERAL ::= NUM | STR | CLOSURE | 'NIL' | 'TRUE' | 'FALSE'

NUM ::= /-?[0-9]+(.[0-9]+)?/

STR ::= /"((\\")|[^"])+"/

CLOSURE ::= 'FN' BLOCK | 'FN' '(' FNVARS ')' BLOCK

FNVARS ::= IDENT | IDENT ',' ARGVARS | ''

VAR ::= IDENT

